\relax 
\providecommand\hyper@newdestlabel[2]{}
\providecommand\HyperFirstAtBeginDocument{\AtBeginDocument}
\HyperFirstAtBeginDocument{\ifx\hyper@anchor\@undefined
\global\let\oldcontentsline\contentsline
\gdef\contentsline#1#2#3#4{\oldcontentsline{#1}{#2}{#3}}
\global\let\oldnewlabel\newlabel
\gdef\newlabel#1#2{\newlabelxx{#1}#2}
\gdef\newlabelxx#1#2#3#4#5#6{\oldnewlabel{#1}{{#2}{#3}}}
\AtEndDocument{\ifx\hyper@anchor\@undefined
\let\contentsline\oldcontentsline
\let\newlabel\oldnewlabel
\fi}
\fi}
\global\let\hyper@last\relax 
\gdef\HyperFirstAtBeginDocument#1{#1}
\providecommand\HyField@AuxAddToFields[1]{}
\providecommand\HyField@AuxAddToCoFields[2]{}
\select@language{english}
\@writefile{toc}{\select@language{english}}
\@writefile{lof}{\select@language{english}}
\@writefile{lot}{\select@language{english}}
\newlabel{index::doc}{{}{1}{}{section*.2}{}}
\@writefile{toc}{\contentsline {chapter}{\numberline {1}1. AUTHORITY}{2}{chapter.1}}
\@writefile{lof}{\addvspace {10\p@ }}
\@writefile{lot}{\addvspace {10\p@ }}
\@writefile{loliteral-block}{\addvspace {10\p@ }}
\newlabel{Section1::doc}{{1}{2}{1. AUTHORITY}{chapter.1}{}}
\newlabel{Section1:authority}{{1}{2}{1. AUTHORITY}{chapter.1}{}}
\newlabel{Section1:welcome-to-ebrd-mls-rules-and-regulations}{{1}{2}{1. AUTHORITY}{chapter.1}{}}
\@writefile{toc}{\contentsline {chapter}{\numberline {2}2. PURPOSE}{3}{chapter.2}}
\@writefile{lof}{\addvspace {10\p@ }}
\@writefile{lot}{\addvspace {10\p@ }}
\@writefile{loliteral-block}{\addvspace {10\p@ }}
\newlabel{Section2::doc}{{2}{3}{2. PURPOSE}{chapter.2}{}}
\newlabel{Section2:purpose}{{2}{3}{2. PURPOSE}{chapter.2}{}}
\@writefile{toc}{\contentsline {chapter}{\numberline {3}3. NOT USED}{4}{chapter.3}}
\@writefile{lof}{\addvspace {10\p@ }}
\@writefile{lot}{\addvspace {10\p@ }}
\@writefile{loliteral-block}{\addvspace {10\p@ }}
\newlabel{Section3:not-used}{{3}{4}{3. NOT USED}{chapter.3}{}}
\newlabel{Section3::doc}{{3}{4}{3. NOT USED}{chapter.3}{}}
\@writefile{toc}{\contentsline {chapter}{\numberline {4}4. PARTICIPATION AND AUTHORIZED ACCESS}{5}{chapter.4}}
\@writefile{lof}{\addvspace {10\p@ }}
\@writefile{lot}{\addvspace {10\p@ }}
\@writefile{loliteral-block}{\addvspace {10\p@ }}
\newlabel{Section4::doc}{{4}{5}{4. PARTICIPATION AND AUTHORIZED ACCESS}{chapter.4}{}}
\newlabel{Section4:participation-and-authorized-access}{{4}{5}{4. PARTICIPATION AND AUTHORIZED ACCESS}{chapter.4}{}}
\newlabel{Section4:participant}{{4}{5}{}{chapter.4}{}}
\newlabel{Section4:broker-participant}{{4}{5}{}{chapter.4}{}}
\newlabel{Section4:appraiser-participant}{{4}{6}{}{Item.6}{}}
\newlabel{Section4:redundant-participant-qualifications}{{4}{6}{}{Item.11}{}}
\newlabel{Section4:subscriber}{{4}{6}{}{Item.11}{}}
\newlabel{Section4:real-estate-subscriber}{{4}{6}{}{Item.11}{}}
\newlabel{Section4:appraiser-subscriber}{{4}{7}{}{Item.16}{}}
\newlabel{Section4:redundant-subscriber-qualifications}{{4}{7}{}{Item.21}{}}
\newlabel{Section4:clerical-users}{{4}{7}{}{Item.21}{}}
\newlabel{Section4:notification-of-licensees}{{4}{8}{}{Item.26}{}}
\newlabel{Section4:participation-not-transferable}{{4}{8}{}{Item.26}{}}
\newlabel{Section4:listing-broker-defined}{{4}{8}{}{Item.26}{}}
\newlabel{Section4:cooperating-broker-or-selling-broker-defined}{{4}{8}{}{Item.26}{}}
\newlabel{Section4:appraiser-defined}{{4}{8}{}{Item.26}{}}
\newlabel{Section4:denied-application}{{4}{8}{}{Item.26}{}}
\newlabel{Section4:interim-training}{{4}{9}{}{Item.26}{}}
\@writefile{toc}{\contentsline {chapter}{\numberline {5}5. MLS FEES AND CHARGES}{10}{chapter.5}}
\@writefile{lof}{\addvspace {10\p@ }}
\@writefile{lot}{\addvspace {10\p@ }}
\@writefile{loliteral-block}{\addvspace {10\p@ }}
\newlabel{Section5:mls-fees-and-charges}{{5}{10}{5. MLS FEES AND CHARGES}{chapter.5}{}}
\newlabel{Section5::doc}{{5}{10}{5. MLS FEES AND CHARGES}{chapter.5}{}}
\newlabel{Section5:serice-fees-and-charges}{{5}{10}{}{chapter.5}{}}
\newlabel{Section5:initial-participation-fee-and-or-application-fee}{{5}{10}{}{chapter.5}{}}
\newlabel{Section5:recurring-participation-fee}{{5}{10}{}{chapter.5}{}}
\newlabel{Section5:listing-fee}{{5}{10}{}{chapter.5}{}}
\newlabel{Section5:book-fee}{{5}{10}{}{chapter.5}{}}
\newlabel{Section5:computer-access-fees}{{5}{11}{}{chapter.5}{}}
\newlabel{Section5:certification-of-non-use}{{5}{11}{}{chapter.5}{}}
\newlabel{Section5:clerical-users}{{5}{11}{}{chapter.5}{}}
\newlabel{Section5:other-fees}{{5}{11}{}{chapter.5}{}}
\newlabel{Section5:responsibility-for-fees}{{5}{11}{}{chapter.5}{}}
\@writefile{toc}{\contentsline {chapter}{\numberline {6}6. REGIONAL AND RECIPROCAL AGREEMENTS}{12}{chapter.6}}
\@writefile{lof}{\addvspace {10\p@ }}
\@writefile{lot}{\addvspace {10\p@ }}
\@writefile{loliteral-block}{\addvspace {10\p@ }}
\newlabel{Section6:regional-and-reciprocal-agreements}{{6}{12}{6. REGIONAL AND RECIPROCAL AGREEMENTS}{chapter.6}{}}
\newlabel{Section6::doc}{{6}{12}{6. REGIONAL AND RECIPROCAL AGREEMENTS}{chapter.6}{}}
\@writefile{toc}{\contentsline {chapter}{\numberline {7}7. LISTING PROCEDURE}{13}{chapter.7}}
\@writefile{lof}{\addvspace {10\p@ }}
\@writefile{lot}{\addvspace {10\p@ }}
\@writefile{loliteral-block}{\addvspace {10\p@ }}
\newlabel{Section7::doc}{{7}{13}{7. LISTING PROCEDURE}{chapter.7}{}}
\newlabel{Section7:listing-procedure}{{7}{13}{7. LISTING PROCEDURE}{chapter.7}{}}
\newlabel{Section7:listings-subject-to-rules-and-regulations-of-the-service}{{7}{13}{}{chapter.7}{}}
\newlabel{Section7:types-of-listings-responsibility-for-classification}{{7}{13}{}{chapter.7}{}}
\newlabel{Section7:scope-of-service-limited-services-listings}{{7}{13}{}{chapter.7}{}}
\newlabel{Section7:scope-of-service-mls-entry-only-listings}{{7}{14}{}{Item.31}{}}
\newlabel{Section7:scope-of-service-legal-obligations}{{7}{14}{}{Item.36}{}}
\newlabel{Section7:types-of-properties}{{7}{14}{}{Item.36}{}}
\newlabel{Section7:compliance-with-california-and-federal-law}{{7}{15}{}{Item.36}{}}
\newlabel{Section7:time-frame-definitions}{{7}{15}{}{Item.36}{}}
\newlabel{Section7:mandatory-submission}{{7}{15}{}{Item.36}{}}
\newlabel{Section7:exempted-listings}{{7}{16}{}{Item.38}{}}
\newlabel{Section7:service-area}{{7}{16}{}{Item.42}{}}
\newlabel{Section7:change-of-listing-information}{{7}{16}{}{Item.42}{}}
\newlabel{Section7:withdrawal-of-listing-prior-to-expiration}{{7}{16}{}{Item.42}{}}
\newlabel{Section7:contingencies}{{7}{17}{}{Item.42}{}}
\newlabel{Section7:details-on-listings-filed-with-the-service}{{7}{17}{}{Item.42}{}}
\newlabel{Section7:list-date-definition}{{7}{17}{}{Item.42}{}}
\newlabel{Section7:unilateral-contractual-offer-sub-agency-optional}{{7}{17}{}{Item.42}{}}
\newlabel{Section7:acceptance-of-contractual-offer}{{7}{18}{}{Item.42}{}}
\newlabel{Section7:consent-to-act-as-dual-agent}{{7}{18}{}{Item.42}{}}
\newlabel{Section7:estate-sale-probate-and-bankruptcy-listings}{{7}{18}{}{Item.42}{}}
\newlabel{Section7:changes-to-offer-of-compensation-by-listing-broker-to-all-broker-participants}{{7}{18}{}{Item.42}{}}
\newlabel{Section7:broker-participant-or-real-estate-subscriber-as-principal}{{7}{19}{}{Item.42}{}}
\newlabel{Section7:multiple-unit-properties}{{7}{19}{}{Item.42}{}}
\newlabel{Section7:expiration-extension-and-renewal-of-listings}{{7}{19}{}{Item.42}{}}
\newlabel{Section7:listings-of-participants-or-subscribers-suspended-expelled-or-resigned}{{7}{19}{}{Item.42}{}}
\newlabel{Section7:failure-to-pay-mls-fees-resignation}{{7}{19}{}{Item.42}{}}
\newlabel{Section7:violation-of-mls-rules}{{7}{19}{}{Item.42}{}}
\newlabel{Section7:no-control-of-commission-rates-or-fees-charged-by-participants}{{7}{20}{}{Item.42}{}}
\newlabel{Section7:dual-or-variable-rate-commission-arrangements}{{7}{20}{}{Item.42}{}}
\newlabel{Section7:right-of-listing-broker-and-presentation-of-counter-offers}{{7}{20}{}{Item.42}{}}
\newlabel{Section7:auction-listings}{{7}{20}{}{Item.42}{}}
\newlabel{Section7:co-listings}{{7}{21}{}{Item.49}{}}
\newlabel{Section7:churning-of-listings-relistings}{{7}{21}{}{Item.49}{}}
\newlabel{Section7:reo-hud-listings}{{7}{21}{}{Item.49}{}}
\newlabel{Section7:short-sale-lender-approval-listings}{{7}{21}{}{Item.49}{}}
\newlabel{Section7:assume-identity}{{7}{21}{}{Item.49}{}}
\@writefile{toc}{\contentsline {chapter}{\numberline {8}8. DOCUMENTATION; PERMISSION; ACCURACY OF INFORMATION}{22}{chapter.8}}
\@writefile{lof}{\addvspace {10\p@ }}
\@writefile{lot}{\addvspace {10\p@ }}
\@writefile{loliteral-block}{\addvspace {10\p@ }}
\newlabel{Section8:documentation-permission-accuracy-of-information}{{8}{22}{8. DOCUMENTATION; PERMISSION; ACCURACY OF INFORMATION}{chapter.8}{}}
\newlabel{Section8::doc}{{8}{22}{8. DOCUMENTATION; PERMISSION; ACCURACY OF INFORMATION}{chapter.8}{}}
\newlabel{Section8:listing-agreement-and-seller-s-permission}{{8}{22}{}{chapter.8}{}}
\newlabel{Section8:written-documentation}{{8}{22}{}{chapter.8}{}}
\newlabel{Section8:accuracy-of-information-responsibility-for-accuracy}{{8}{22}{}{chapter.8}{}}
\newlabel{Section8:input-defined}{{8}{23}{}{chapter.8}{}}
\newlabel{Section8:buyer-seller-purchase-and-sale-defined}{{8}{23}{}{chapter.8}{}}
\@writefile{toc}{\contentsline {chapter}{\numberline {9}9. SELLING PROCEDURES}{24}{chapter.9}}
\@writefile{lof}{\addvspace {10\p@ }}
\@writefile{lot}{\addvspace {10\p@ }}
\@writefile{loliteral-block}{\addvspace {10\p@ }}
\newlabel{Section9:selling-procedures}{{9}{24}{9. SELLING PROCEDURES}{chapter.9}{}}
\newlabel{Section9::doc}{{9}{24}{9. SELLING PROCEDURES}{chapter.9}{}}
\newlabel{Section9:showings-and-negotiations}{{9}{24}{}{chapter.9}{}}
\newlabel{Section9:showing-access}{{9}{24}{}{Item.51}{}}
\newlabel{Section9:disclosing-the-existence-of-offers}{{9}{24}{}{Item.51}{}}
\newlabel{Section9:availability-to-show-or-inspect}{{9}{24}{}{Item.51}{}}
\newlabel{Section9:presentation-of-offers}{{9}{24}{}{Item.51}{}}
\newlabel{Section9:submission-of-offers-and-counter-offers}{{9}{25}{}{Item.51}{}}
\newlabel{Section9:right-of-cooperating-broker-in-presentation-of-offer}{{9}{25}{}{Item.51}{}}
\newlabel{Section9:change-of-compensation-offer-by-cooperating-broker}{{9}{25}{}{Item.51}{}}
\newlabel{Section9:cooperating-broker-as-a-purchaser}{{9}{25}{}{Item.51}{}}
\newlabel{Section9:physical-presence-of-participant-or-subscriber}{{9}{25}{}{Item.51}{}}
\@writefile{toc}{\contentsline {chapter}{\numberline {10}10. REPORTING STATUS CHANGES AND OTHER INFORMATION TO THE MLS}{26}{chapter.10}}
\@writefile{lof}{\addvspace {10\p@ }}
\@writefile{lot}{\addvspace {10\p@ }}
\@writefile{loliteral-block}{\addvspace {10\p@ }}
\newlabel{Section10::doc}{{10}{26}{10. REPORTING STATUS CHANGES AND OTHER INFORMATION TO THE MLS}{chapter.10}{}}
\newlabel{Section10:reporting-status-changes-and-other-information-to-the-mls}{{10}{26}{10. REPORTING STATUS CHANGES AND OTHER INFORMATION TO THE MLS}{chapter.10}{}}
\newlabel{Section10:statuses}{{10}{26}{}{chapter.10}{}}
\newlabel{Section10:reporting-of-sales}{{10}{27}{}{chapter.10}{}}
\newlabel{Section10:removal-of-listings-for-refusal-failure-to-timely-report-status-changes}{{10}{27}{}{chapter.10}{}}
\newlabel{Section10:reporting-cancellation-of-pending-sale}{{10}{27}{}{chapter.10}{}}
\newlabel{Section10:refusal-to-sell}{{10}{27}{}{chapter.10}{}}
\@writefile{toc}{\contentsline {chapter}{\numberline {11}11. OWNERSHIP OF MLS COMPILATIONS AND COPYRIGHTS}{28}{chapter.11}}
\@writefile{lof}{\addvspace {10\p@ }}
\@writefile{lot}{\addvspace {10\p@ }}
\@writefile{loliteral-block}{\addvspace {10\p@ }}
\newlabel{Section11::doc}{{11}{28}{11. OWNERSHIP OF MLS COMPILATIONS AND COPYRIGHTS}{chapter.11}{}}
\newlabel{Section11:ownership-of-mls-compilations-and-copyrights}{{11}{28}{11. OWNERSHIP OF MLS COMPILATIONS AND COPYRIGHTS}{chapter.11}{}}
\newlabel{Section11:mls-compilation-defined}{{11}{28}{}{chapter.11}{}}
\newlabel{Section11:active-listing-mls-compilation-defined}{{11}{28}{}{chapter.11}{}}
\newlabel{Section11:comparable-data-mls-compilationg-defined}{{11}{28}{}{chapter.11}{}}
\newlabel{Section11:authority-to-put-listings-in-mls-compilation}{{11}{28}{}{chapter.11}{}}
\newlabel{Section11:photographs-on-the-mls}{{11}{28}{}{chapter.11}{}}
\newlabel{Section11:copyright-ownership}{{11}{29}{}{Item.53}{}}
\newlabel{Section11:access-to-mls-compilations}{{11}{29}{}{Item.53}{}}
\newlabel{Section11:database-preservation}{{11}{29}{}{Item.53}{}}
\newlabel{Section11:removal-of-and-responsibility-for-content}{{11}{29}{}{Item.53}{}}
\newlabel{Section11:indeminification-limitation-of-liability}{{11}{30}{}{Item.53}{}}
\@writefile{toc}{\contentsline {chapter}{\numberline {12}12. PROHIBITIONS AND REQUIREMENTS}{31}{chapter.12}}
\@writefile{lof}{\addvspace {10\p@ }}
\@writefile{lot}{\addvspace {10\p@ }}
\@writefile{loliteral-block}{\addvspace {10\p@ }}
\newlabel{Section12:prohibitions-and-requirements}{{12}{31}{12. PROHIBITIONS AND REQUIREMENTS}{chapter.12}{}}
\newlabel{Section12::doc}{{12}{31}{12. PROHIBITIONS AND REQUIREMENTS}{chapter.12}{}}
\newlabel{Section12:notification-of-california-bureau-of-real-estate-bre-or-california-office-of-real-estate-appraisers-orea-action}{{12}{31}{}{chapter.12}{}}
\newlabel{Section12:violations-of-the-law}{{12}{31}{}{chapter.12}{}}
\newlabel{Section12:supervision-of-licensees-and-appraisers}{{12}{31}{}{chapter.12}{}}
\newlabel{Section12:solicitation-of-listing-filed-with-the-mls}{{12}{31}{}{chapter.12}{}}
\newlabel{Section12:use-of-remarks}{{12}{32}{}{chapter.12}{}}
\newlabel{Section12:public-remarks-restrictions-and-requirements}{{12}{32}{}{chapter.12}{}}
\newlabel{Section12:confidential-remarks-restrictions-and-requirements}{{12}{32}{}{Item.57}{}}
\newlabel{Section12:rd-party-syndication}{{12}{33}{}{Item.63}{}}
\newlabel{Section12:for-sale-signs}{{12}{33}{}{Item.63}{}}
\newlabel{Section12:sold-signs-and-use-of-the-term-sold}{{12}{33}{}{Item.63}{}}
\newlabel{Section12:advertising-of-listing-filed-with-the-mls}{{12}{33}{}{Item.63}{}}
\newlabel{Section12:advertising-of-listing-in-printed-neighborhood-market-report}{{12}{33}{}{Item.63}{}}
\newlabel{Section12:limitations-on-use-of-association-or-mls-information-in-advertising}{{12}{34}{}{Item.66}{}}
\newlabel{Section12:false-or-misleading-advertising-and-representations}{{12}{34}{}{Item.66}{}}
\newlabel{Section12:use-of-mls-information}{{12}{35}{}{Item.69}{}}
\newlabel{Section12:confidentiality-of-mls-information}{{12}{35}{}{Item.69}{}}
\newlabel{Section12:clerical-users}{{12}{35}{}{Item.69}{}}
\newlabel{Section12:access-to-the-compilations-and-standards-information}{{12}{35}{}{Item.69}{}}
\newlabel{Section12:display}{{12}{35}{}{Item.69}{}}
\newlabel{Section12:id1}{{12}{36}{}{Item.69}{}}
\newlabel{Section12:reproduction}{{12}{36}{}{Item.69}{}}
\newlabel{Section12:copies-to-prospective-purchasers}{{12}{36}{}{Item.69}{}}
\newlabel{Section12:information-prohibited-from-reproduction-confidential-fields}{{12}{36}{}{Item.72}{}}
\newlabel{Section12:copies-for-appraisals}{{12}{37}{}{Item.78}{}}
\newlabel{Section12:compilation-downloading}{{12}{37}{}{Item.78}{}}
\newlabel{Section12:sold-information}{{12}{37}{}{Item.80}{}}
\newlabel{Section12:use-of-listing-information-on-the-internet}{{12}{37}{}{Item.80}{}}
\newlabel{Section12:notification-by-authorized-broker-participants-and-real-estate-subscribers}{{12}{40}{}{Item.100}{}}
\newlabel{Section12:right-to-charge-for-download}{{12}{40}{}{Item.100}{}}
\newlabel{Section12:listing-broker-s-right-to-opt-out-of-internet-advertising-of-mls-information}{{12}{40}{}{Item.100}{}}
\newlabel{Section12:intention-of-idx-display}{{12}{40}{}{Item.100}{}}
\newlabel{Section12:website-name-and-status-disclosure}{{12}{41}{}{Item.100}{}}
\newlabel{Section12:use-of-the-terms-mls-and-multiple-listing-service}{{12}{41}{}{Item.100}{}}
\newlabel{Section12:virtual-office-websites-vow}{{12}{41}{}{Item.100}{}}
\newlabel{Section12:id2}{{12}{41}{}{Item.100}{}}
\newlabel{Section12:id3}{{12}{41}{}{Item.103}{}}
\newlabel{Section12:id4}{{12}{42}{}{Item.106}{}}
\newlabel{Section12:id5}{{12}{43}{}{Item.120}{}}
\newlabel{Section12:id6}{{12}{43}{}{Item.120}{}}
\newlabel{Section12:id7}{{12}{43}{}{Item.120}{}}
\newlabel{Section12:id8}{{12}{43}{}{Item.123}{}}
\newlabel{Section12:id9}{{12}{44}{}{Item.127}{}}
\newlabel{Section12:id10}{{12}{44}{}{Item.127}{}}
\newlabel{Section12:id11}{{12}{44}{}{Item.127}{}}
\newlabel{Section12:id12}{{12}{44}{}{Item.127}{}}
\newlabel{Section12:id13}{{12}{44}{}{Item.127}{}}
\newlabel{Section12:id14}{{12}{44}{}{Item.127}{}}
\newlabel{Section12:id15}{{12}{45}{}{Item.127}{}}
\newlabel{Section12:id16}{{12}{45}{}{Item.127}{}}
\newlabel{Section12:id17}{{12}{45}{}{Item.132}{}}
\newlabel{Section12:id18}{{12}{45}{}{Item.132}{}}
\newlabel{Section12:id19}{{12}{45}{}{Item.132}{}}
\newlabel{Section12:id20}{{12}{45}{}{Item.132}{}}
\newlabel{Section12:id21}{{12}{46}{}{Item.132}{}}
\newlabel{Section12:id22}{{12}{46}{}{Item.132}{}}
\newlabel{Section12:id23}{{12}{46}{}{Item.132}{}}
\newlabel{Section12:id24}{{12}{46}{}{Item.132}{}}
\newlabel{Section12:id25}{{12}{46}{}{Item.132}{}}
\newlabel{Section12:applicability-of-rules-to-mls}{{12}{46}{}{Item.132}{}}
\newlabel{Section12:participant-and-subscriber-standards-of-conduct}{{12}{46}{}{Item.132}{}}
\@writefile{toc}{\contentsline {chapter}{\numberline {13}13. LOCKBOXES}{48}{chapter.13}}
\@writefile{lof}{\addvspace {10\p@ }}
\@writefile{lot}{\addvspace {10\p@ }}
\@writefile{loliteral-block}{\addvspace {10\p@ }}
\newlabel{Section13::doc}{{13}{48}{13. LOCKBOXES}{chapter.13}{}}
\newlabel{Section13:lockboxes}{{13}{48}{13. LOCKBOXES}{chapter.13}{}}
\newlabel{Section13:eligibility-for-lockboxes-privileges}{{13}{48}{}{chapter.13}{}}
\newlabel{Section13:key-use-and-service}{{13}{48}{}{Item.136}{}}
\newlabel{Section13:use-of-lockbox-contents}{{13}{48}{}{Item.136}{}}
\newlabel{Section13:lockbox-requirements}{{13}{48}{}{Item.136}{}}
\newlabel{Section13:accountability}{{13}{49}{}{Item.139}{}}
\newlabel{Section13:deemed-unaccountable}{{13}{49}{}{Item.139}{}}
\newlabel{Section13:written-authority}{{13}{49}{}{Item.139}{}}
\newlabel{Section13:unaccountable-keys}{{13}{49}{}{Item.139}{}}
\newlabel{Section13:deposits}{{13}{50}{}{Item.139}{}}
\newlabel{Section13:rules-violations}{{13}{50}{}{Item.139}{}}
\newlabel{Section13:right-to-limit-access}{{13}{50}{}{Item.139}{}}
\newlabel{Section13:removal-of-lockbox}{{13}{50}{}{Item.139}{}}
\@writefile{toc}{\contentsline {chapter}{\numberline {14}14. VIOLATIONS OF RULES AND REGULATIONS}{51}{chapter.14}}
\@writefile{lof}{\addvspace {10\p@ }}
\@writefile{lot}{\addvspace {10\p@ }}
\@writefile{loliteral-block}{\addvspace {10\p@ }}
\newlabel{Section14:violations-of-rules-and-regulations}{{14}{51}{14. VIOLATIONS OF RULES AND REGULATIONS}{chapter.14}{}}
\newlabel{Section14::doc}{{14}{51}{14. VIOLATIONS OF RULES AND REGULATIONS}{chapter.14}{}}
\newlabel{Section14:grounds-for-disciplinary-action-and-sanctions}{{14}{51}{}{chapter.14}{}}
\newlabel{Section14:sanctions}{{14}{51}{}{Item.143}{}}
\newlabel{Section14:citations}{{14}{51}{}{Item.143}{}}
\newlabel{Section14:fines}{{14}{52}{}{Item.143}{}}
\@writefile{toc}{\contentsline {chapter}{\numberline {15}15. PROCEDURES FOR MLS RULES HEARINGS}{53}{chapter.15}}
\@writefile{lof}{\addvspace {10\p@ }}
\@writefile{lot}{\addvspace {10\p@ }}
\@writefile{loliteral-block}{\addvspace {10\p@ }}
\newlabel{Section15::doc}{{15}{53}{15. PROCEDURES FOR MLS RULES HEARINGS}{chapter.15}{}}
\newlabel{Section15:procedures-for-mls-rules-hearings}{{15}{53}{15. PROCEDURES FOR MLS RULES HEARINGS}{chapter.15}{}}
\@writefile{toc}{\contentsline {chapter}{\numberline {16}16. ARBITRATION}{54}{chapter.16}}
\@writefile{lof}{\addvspace {10\p@ }}
\@writefile{lot}{\addvspace {10\p@ }}
\@writefile{loliteral-block}{\addvspace {10\p@ }}
\newlabel{Section16:arbitration}{{16}{54}{16. ARBITRATION}{chapter.16}{}}
\newlabel{Section16::doc}{{16}{54}{16. ARBITRATION}{chapter.16}{}}
\newlabel{Section16:mandatory-arbitration}{{16}{54}{}{chapter.16}{}}
\newlabel{Section16:administration-of-all-arbitrations-hearings}{{16}{54}{}{chapter.16}{}}
\newlabel{Section16:other-arbitration-agreements}{{16}{54}{}{Item.146}{}}
\newlabel{Section16:arbitration-between-association-members}{{16}{54}{}{Item.146}{}}
\newlabel{Section16:arbitration-involving-non-association-members-see-16-1-1-above}{{16}{55}{}{Item.148}{}}
\newlabel{Section16:same-firm}{{16}{55}{}{Item.148}{}}
\newlabel{Section16:timing}{{16}{55}{}{Item.148}{}}
\@writefile{toc}{\contentsline {chapter}{\numberline {17}17. NONPAYMENT OF MLS FEES}{56}{chapter.17}}
\@writefile{lof}{\addvspace {10\p@ }}
\@writefile{lot}{\addvspace {10\p@ }}
\@writefile{loliteral-block}{\addvspace {10\p@ }}
\newlabel{Section17:nonpayment-of-mls-fees}{{17}{56}{17. NONPAYMENT OF MLS FEES}{chapter.17}{}}
\newlabel{Section17::doc}{{17}{56}{17. NONPAYMENT OF MLS FEES}{chapter.17}{}}
\newlabel{Section17:non-payment-of-mls-fees}{{17}{56}{}{chapter.17}{}}
\newlabel{Section17:disputed-amounts}{{17}{56}{}{chapter.17}{}}
\newlabel{Section17:reinstatement}{{17}{56}{}{chapter.17}{}}
\@writefile{toc}{\contentsline {chapter}{\numberline {18}18. CHANGES IN RULES AND REGULATIONS}{57}{chapter.18}}
\@writefile{lof}{\addvspace {10\p@ }}
\@writefile{lot}{\addvspace {10\p@ }}
\@writefile{loliteral-block}{\addvspace {10\p@ }}
\newlabel{Section18::doc}{{18}{57}{18. CHANGES IN RULES AND REGULATIONS}{chapter.18}{}}
\newlabel{Section18:changes-in-rules-and-regulations}{{18}{57}{18. CHANGES IN RULES AND REGULATIONS}{chapter.18}{}}
\@writefile{toc}{\contentsline {chapter}{\numberline {19}APPENDIX A - CITABLE INFRACTIONS}{58}{chapter.19}}
\@writefile{lof}{\addvspace {10\p@ }}
\@writefile{lot}{\addvspace {10\p@ }}
\@writefile{loliteral-block}{\addvspace {10\p@ }}
\newlabel{APPENDIX_A::doc}{{19}{58}{APPENDIX A - CITABLE INFRACTIONS}{chapter.19}{}}
\newlabel{APPENDIX_A:appendix-a-citable-infractions}{{19}{58}{APPENDIX A - CITABLE INFRACTIONS}{chapter.19}{}}
\newlabel{APPENDIX_A:unauthorized-access-to-mls}{{19}{58}{}{chapter.19}{}}
\newlabel{APPENDIX_A:misuse-of-mls-information}{{19}{59}{}{chapter.19}{}}
\newlabel{APPENDIX_A:loading-listings-and-reporting-status-changes-by-deadline}{{19}{59}{}{chapter.19}{}}
\newlabel{APPENDIX_A:status-changes-not-reported-by-deadline}{{19}{60}{}{chapter.19}{}}
\newlabel{APPENDIX_A:unilateral-contractual-offer}{{19}{60}{}{chapter.19}{}}
\newlabel{APPENDIX_A:reporting-and-accuracy-of-information}{{19}{61}{}{chapter.19}{}}
\newlabel{APPENDIX_A:submission-of-listings-that-do-not-satisfy-the-requirements-of-the-mls-rules}{{19}{61}{}{chapter.19}{}}
\newlabel{APPENDIX_A:purposely-manipulating-the-mls-system-to-circumvent-the-rules}{{19}{62}{}{chapter.19}{}}
\newlabel{APPENDIX_A:remarks}{{19}{63}{}{chapter.19}{}}
\newlabel{APPENDIX_A:misuse-of-remarks}{{19}{63}{}{chapter.19}{}}
\newlabel{APPENDIX_A:misuse-of-public-remarks-publishing-any-of-the-following-in-public-remarks}{{19}{64}{}{chapter.19}{}}
\newlabel{APPENDIX_A:misuse-of-confidential-remarks}{{19}{65}{}{chapter.19}{}}
\newlabel{APPENDIX_A:miscellaneous}{{19}{66}{}{chapter.19}{}}
\newlabel{APPENDIX_A:showings-and-access}{{19}{66}{}{chapter.19}{}}
\@writefile{toc}{\contentsline {chapter}{\numberline {20}APPENDIX B - DEFINITION OF RESIDENTIAL PROPERTY TYPES/CLASS}{67}{chapter.20}}
\@writefile{lof}{\addvspace {10\p@ }}
\@writefile{lot}{\addvspace {10\p@ }}
\@writefile{loliteral-block}{\addvspace {10\p@ }}
\newlabel{APPENDIX_B:appendix-b-definition-of-residential-property-types-class}{{20}{67}{APPENDIX B - DEFINITION OF RESIDENTIAL PROPERTY TYPES/CLASS}{chapter.20}{}}
\newlabel{APPENDIX_B::doc}{{20}{67}{APPENDIX B - DEFINITION OF RESIDENTIAL PROPERTY TYPES/CLASS}{chapter.20}{}}
\newlabel{APPENDIX_B:residential}{{20}{67}{}{chapter.20}{}}
\newlabel{APPENDIX_B:residential-income}{{20}{68}{}{Item.157}{}}
\newlabel{APPENDIX_B:mobile-homes}{{20}{68}{}{Item.157}{}}
\newlabel{APPENDIX_B:lots-land}{{20}{68}{}{Item.157}{}}
